001.	AuthenticationServiceImpl.java	->	public void load()
		
002.	`from users` changed to -->	`from live_users`
		==>	LocationServiceImpl.java (228)
		==>	LocationServiceImpl.java (428)
		
		==>	Registrar.java (187)
		==>	Registrar.java (343)
		==>	Registrar.java (448)
		
		==>	ServerEngine.java (210)
		==>	ServerEngine.java (246)
		
003.	Creating common DbConnection	--> ServerEngine.java =>	(64)(149)(231-236)(250)(285-290)
											Registrar.java	  =>	(23,149,181-185,221-226,249,337-341,373-378,405-410,449,468-473) commenting
											//LocationServiceImpl.java (36,227,229,237,246,275-280,426-427,477-482,245----)
											