1363237580647: Date 	Call-Id 	Status 	Caller 	Callee 	Setup Time 	Call Time
1363237652945: Date 	Call-Id 	Status 	Caller 	Callee 	Setup Time 	Call Time
1363238036950: 2013-03-14 11:13:56.950	10627@192.168.1.126	200 OK		
1363238058283: 2013-03-14 11:14:18.283	10627@192.168.1.126	BYE		
1363238071526: 2013-03-14 11:14:31.526	26219@192.168.1.96	200 OK		
1363238084116: 2013-03-14 11:14:44.116	26219@192.168.1.96	BYE		
1363238090643: 2013-03-14 11:14:50.643	738@192.168.1.126	200 OK		
1363238098113: 2013-03-14 11:14:58.113	738@192.168.1.126	BYE		
1363238139567: 2013-03-14 11:15:39.567	8854@192.168.1.126	200 OK		
1363238151017: 2013-03-14 11:15:51.017	8854@192.168.1.126	BYE		
1363238278349: Date 	Call-Id 	Status 	Caller 	Callee 	Setup Time 	Call Time
1363238363688: Date 	Call-Id 	Status 	Caller 	Callee 	Setup Time 	Call Time
1363238532877: Date 	Call-Id 	Status 	Caller 	Callee 	Setup Time 	Call Time
1363242708195: Date 	Call-Id 	Status 	Caller 	Callee 	Setup Time 	Call Time
1363242953247: Date 	Call-Id 	Status 	Caller 	Callee 	Setup Time 	Call Time
1363243062317: Date 	Call-Id 	Status 	Caller 	Callee 	Setup Time 	Call Time
1363243294938: Date 	Call-Id 	Status 	Caller 	Callee 	Setup Time 	Call Time
1363243663658: Date 	Call-Id 	Status 	Caller 	Callee 	Setup Time 	Call Time
1363243742048: Date 	Call-Id 	Status 	Caller 	Callee 	Setup Time 	Call Time
1363244124625: Date 	Call-Id 	Status 	Caller 	Callee 	Setup Time 	Call Time
1363245148137: Date 	Call-Id 	Status 	Caller 	Callee 	Setup Time 	Call Time
1363245299877: Date 	Call-Id 	Status 	Caller 	Callee 	Setup Time 	Call Time
1363245305627: Date 	Call-Id 	Status 	Caller 	Callee 	Setup Time 	Call Time
1363681792532: Date 	Call-Id 	Status 	Caller 	Callee 	Setup Time 	Call Time
1363681931977: Date 	Call-Id 	Status 	Caller 	Callee 	Setup Time 	Call Time
1363681978795: Date 	Call-Id 	Status 	Caller 	Callee 	Setup Time 	Call Time
1363682055517: Date 	Call-Id 	Status 	Caller 	Callee 	Setup Time 	Call Time
1363682208755: Date 	Call-Id 	Status 	Caller 	Callee 	Setup Time 	Call Time
1363682342949: Date 	Call-Id 	Status 	Caller 	Callee 	Setup Time 	Call Time
1363682479502: Date 	Call-Id 	Status 	Caller 	Callee 	Setup Time 	Call Time
1363682614511: Date 	Call-Id 	Status 	Caller 	Callee 	Setup Time 	Call Time
1363682786657: Date 	Call-Id 	Status 	Caller 	Callee 	Setup Time 	Call Time
1363682872607: Date 	Call-Id 	Status 	Caller 	Callee 	Setup Time 	Call Time
